{
  "development": {
    "username": "postgres",
    "password": "189051",
    "database": "film_development",
    "host": "127.0.0.1",
    "dialect": "postgres"
  },
  "test": {
    "username": "postgres",
    "password": null,
    "database": "film_test",
    "host": "127.0.0.1",
    "dialect": "postgres"
  },
  "production": {
    "username": "postgres",
    "password": null,
    "database": "film_production",
    "host": "127.0.0.1",
    "dialect": "postgres"
  }
}
